{"success":true,"count":1,"total":580,"pagination":{"page":1,"limit":1,"totalPages":580},"data":[{"id":585,"name":"Coffee Makers - 16L","name_ar":"اسم المنتج","slug":"coffee-makers-16l","description":"dca","description_ar":"ac","short_description":"adc","short_description_ar":"ac","specifications":"ac","price":"4888.00","discount_percentage":"53.28","offer_price":"2283.67","stock_quantity":10,"track_inventory":1,"category_id":17,"brand_id":2,"seller_id":null,"is_featured":0,"is_weekly_deal":1,"is_limited_offer":0,"is_daily_offer":0,"is_best_seller":0,"status":"active","product_group":"","sub_category":"","model":"SCC-611","youtube_video_link":"{\"links\":[\"\"],\"featuredIndex\":0}","resources":"[]","offer_start":"2026-03-12T02:48:00.000Z","offer_end":"2026-03-18T02:48:00.000Z","is_active":1,"created_at":"2026-03-09T08:14:17.000Z","updated_at":"2026-03-26T06:12:35.000Z","sub_category_id":null,"sub_sub_category_id":null,"category_name":"Cooking equipment","category_slug":"cooking-equipment","sub_category_name":null,"sub_sub_category_name":null,"brand_name":"ALTO-SHAAM","brand_name_ar":null,"brand_slug":"alto-shaam","brand_image":"/assets/brands/Alto-Shaam.png.webp","seller_name":null,"seller_company":null,"primary_image":"/assets/placeholder-image.webp","average_rating":"0.0000","total_reviews":0,"sold_count":"1","images":[{"id":766,"product_id":585,"image_url":"/assets/placeholder-image.webp","is_primary":1,"created_at":"2026-03-26T06:12:34.000Z","updated_at":"2026-03-26T06:12:34.000Z"}]}]}